Setting,N_0,N_1,N_2,n_boot,Model
1,50,50,0,9999,LN_20
2,100,100,0,9999,LN_20
3,50,150,0,9999,LN_20
4,150,50,0,9999,LN_20
5,50,50,0,9999,LN_21
6,100,100,0,9999,LN_21
7,50,150,0,9999,LN_21
8,150,50,0,9999,LN_21
9,50,50,0,9999,LN_22
10,100,100,0,9999,LN_22
11,50,150,0,9999,LN_22
12,150,50,0,9999,LN_22
13,50,50,0,9999,GAM_20
14,100,100,0,9999,GAM_20
15,50,150,0,9999,GAM_20
16,150,50,0,9999,GAM_20
17,50,50,0,9999,GAM_21
18,100,100,0,9999,GAM_21
19,50,150,0,9999,GAM_21
20,150,50,0,9999,GAM_21
21,50,50,0,9999,GAM_22
22,100,100,0,9999,GAM_22
23,50,150,0,9999,GAM_22
24,150,50,0,9999,GAM_22
